{
	"name": "System",
	"events": [
		{
			"eventType": "include",
			"includeSheet": "Creatures"
		},
		{
			"eventType": "variable",
			"name": "GamePhase",
			"type": "number",
			"initialValue": "2",
			"comment": "0 = Non-Game, 1 = Phase One (Prepare), 2 = Phase Two (Control)",
			"isStatic": false,
			"isConstant": false,
			"sid": 143331366627832
		},
		{
			"eventType": "block",
			"conditions": [
				{
					"id": "every-tick",
					"objectClass": "System",
					"sid": 223456823821877
				}
			],
			"actions": [
				{
					"id": "set-animation-frame",
					"objectClass": "aliveCounter",
					"sid": 726852121000451,
					"parameters": {
						"frame-number": "creaturesAlive"
					}
				}
			],
			"sid": 856920170908388
		}
	],
	"sid": 316539311991021
}